<?xml version="1.0" encoding="UTF-8" standalone="no"?>
<!-- Created with Inkscape (http://www.inkscape.org/) -->

<svg
   xmlns:dc="http://purl.org/dc/elements/1.1/"
   xmlns:cc="http://creativecommons.org/ns#"
   xmlns:rdf="http://www.w3.org/1999/02/22-rdf-syntax-ns#"
   xmlns:svg="http://www.w3.org/2000/svg"
   xmlns="http://www.w3.org/2000/svg"
   xmlns:sodipodi="http://sodipodi.sourceforge.net/DTD/sodipodi-0.dtd"
   xmlns:inkscape="http://www.inkscape.org/namespaces/inkscape"
   width="24"
   height="24"
   viewBox="0 0 6.3499999 6.3500002"
   version="1.1"
   id="svg8"
   sodipodi:docname="refresh.svg"
   inkscape:version="0.92.4 (5da689c313, 2019-01-14)">
  <defs
     id="defs2" />
  <sodipodi:namedview
     id="base"
     pagecolor="#ffffff"
     bordercolor="#666666"
     borderopacity="1.0"
     inkscape:pageopacity="0.0"
     inkscape:pageshadow="2"
     inkscape:zoom="22.4"
     inkscape:cx="1.7045523"
     inkscape:cy="13.581521"
     inkscape:document-units="mm"
     inkscape:current-layer="layer1"
     showgrid="false"
     units="px"
     showborder="true"
     inkscape:window-width="1920"
     inkscape:window-height="1017"
     inkscape:window-x="-8"
     inkscape:window-y="-8"
     inkscape:window-maximized="1" />
  <metadata
     id="metadata5">
    <rdf:RDF>
      <cc:Work
         rdf:about="">
        <dc:format>image/svg+xml</dc:format>
        <dc:type
           rdf:resource="http://purl.org/dc/dcmitype/StillImage" />
        <dc:title></dc:title>
      </cc:Work>
    </rdf:RDF>
  </metadata>
  <g
     inkscape:label="Layer 1"
     inkscape:groupmode="layer"
     id="layer1"
     transform="translate(0,-290.64998)">
    <path
       style="opacity:1;fill:#000000;fill-opacity:1;stroke:none;stroke-width:0;stroke-linecap:round;stroke-miterlimit:4;stroke-dasharray:none;stroke-dashoffset:0;stroke-opacity:1"
       d="M 12 0 A 12 12 0 0 0 0 12 A 12 12 0 0 0 12 24 A 12 12 0 0 0 24 12 A 12 12 0 0 0 12 0 z M 12.003906 4.0019531 C 14.207119 4.0019531 16.211617 4.8952205 17.658203 6.3417969 A 1.0021986 1.0021986 0 0 1 17.705078 6.3945312 L 18.857422 5.3515625 L 19.388672 7.8242188 L 19.919922 10.296875 L 17.513672 9.5214844 L 15.107422 8.7441406 L 16.21875 7.7402344 C 15.133678 6.6654516 13.65619 6.0039062 12.003906 6.0039062 C 8.6783551 6.0039062 6.0019592 8.6724784 6.0019531 11.998047 C 6.001941 15.323615 8.6783445 17.998047 12.003906 17.998047 C 13.666691 17.998047 15.153295 17.329104 16.240234 16.242188 C 16.783685 15.698729 17.227947 15.054943 17.53125 14.337891 A 1.0001001 1.0001001 0 1 1 19.369141 15.111328 C 18.964008 16.069136 18.381503 16.934877 17.658203 17.658203 C 16.211602 19.104817 14.207126 20 12.003906 20 C 7.597462 20 4.0019369 16.404485 4.0019531 11.998047 C 4.0019607 7.5916091 7.5974809 4.0019531 12.003906 4.0019531 z "
       transform="matrix(0.26458333,0,0,0.26458333,0,290.64998)"
       id="path815" />
  </g>
</svg>
